2019-05-19-first
…
One cool thing this will allow us to do is to use consistent variable names in formulas and functions and to feed the correct data into different programs using the dplyr helper function filter(). You can use expand grid with purrr functions without nesting any data in the data frame (in fact, I do this a lot because I work with large data sets and lots of combinations), but I’m going to show you the nested data frame route in this case and refer you to my GitHub for when and how you would use the expand.grid() approach.

Back to nested data frames. We want to end up with a data frame that has the same columns as the expand.grid() data frame except that we want an additional column that holds the data for each trait-outcome pair. To do this, we need to have a column that indexes both trait and outcome. To get this, we change our data to the “tidy” format using gather() in the tidyr package.

So let’s take our Big 5 data and do that.

# Let's make the trait data long and create composites
(ipip50_composites <- ipip50 %>%
  gather(key = item, value = value, A_1:O_10) %>%
  separate(item, c("Trait", "item"), sep = "_") %>%
  group_by(RID, gender, age, BMI, exer, logMedInc, Trait) %>%
  summarise(t.value = mean(value, na.rm = T)))

## # A tibble: 5,000 x 8
## # Groups:   RID, gender, age, BMI, exer, logMedInc [1,000]
##        RID gender   age   BMI exer  logMedInc Trait t.value
##      <int> <chr>  <int> <dbl> <chr>     <dbl> <chr>   <dbl>
##  1 3078429 female    27  28.0 3          10.7 A        5.41
##  2 3078429 female    27  28.0 3          10.7 C        4.77
##  3 3078429 female    27  28.0 3          10.7 E        6.03
##  4 3078429 female    27  28.0 3          10.7 N        5.65
##  5 3078429 female    27  28.0 3          10.7 O        4.01
##  6 4310942 female    35  28.4 4          10.7 A        4.63
##  7 4310942 female    35  28.4 4          10.7 C        4.77
##  8 4310942 female    35  28.4 4          10.7 E        5.00
##  9 4310942 female    35  28.4 4          10.7 N        3.11
## 10 4310942 female    35  28.4 4          10.7 O        6.78
## # ... with 4,990 more rows
…
## Time difference of 0.1924372 secs

This took a lot more lines of code and also took longer. For a few models with a small data set, this doesn’t matter much. But when you work with hundreds of models with 10’s or 100’s of thousands of observations, this adds up.

So the lesson here is just use purrr. Please.

Unnesting

Using the tidy() function from the broom package, we now have another column. Again, the column’s class is “list” but the cell’s class is “data.frame”. How can we use this? Well, the nest() function we used earlier has a sibling called unnest(). It does the opposite of nest(); it takes our list columns and expands it. So, since we have 2 x 5 data frame in each cell of the “tidy” column, when we unnest it, there will be rows for each Trait and outcome combination (where there was only 1 in the nested data frame). This will make more sense with a demonstration:

ipip50_nested %>%
  unnest(tidy, .drop = T)

## # A tibble: 30 x 7
##    Trait Outcome term        estimate std.error statistic   p.value
##    <chr> <chr>   <chr>          <dbl>     <dbl>     <dbl>     <dbl>
##  1 A     BMI     (Intercept)  25.3        1.10    23.0    2.11e- 94
##  2 A     BMI     t.value       0.0627     0.229    0.274  7.84e-  1
##  3 C     BMI     (Intercept)  26.2        0.928   28.3    1.54e-129
##  4 C     BMI     t.value      -0.152      0.220   -0.691  4.89e-  1
##  5 E     BMI     (Intercept)  25.7        0.667   38.5    1.34e-199
##  6 E     BMI     t.value      -0.0228     0.172   -0.133  8.94e-  1
##  7 N     BMI     (Intercept)  25.9        0.667   38.8    2.28e-201
##  8 N     BMI     t.value      -0.0763     0.181   -0.423  6.73e-  1
##  9 O     BMI     (Intercept)  25.5        0.947   26.9    1.55e-120
## 10 O     BMI     t.value       0.0167     0.199    0.0840 9.33e-  1
## # ... with 20 more rows
…
